election_pred_v1
…
# Q1
# Summarize population by age group and sex
population_summary <- df %>%
  group_by(agegroup, sex) %>%
  summarise(total_population = sum(population, na.rm = TRUE)) %>%
  arrange(agegroup, sex)

`summarise()` has grouped output by 'agegroup'. You can override using the
`.groups` argument.

# View the summary
print(population_summary)

# A tibble: 36 × 3
# Groups:   agegroup [18]
   agegroup sex    total_population
   <fct>    <chr>             <dbl>
 1 0-4      female      1650027066.
 2 0-4      male        1723312304.
 3 5-9      female      1781205944.
 4 5-9      male        1860173338.
 5 10-14    female      1904954970.
 6 10-14    male        1982401321.
 7 15-19    female      1950642460.
 8 15-19    male        2017036896.
 9 20-24    female      1900048477.
10 20-24    male        1884815974.
# ℹ 26 more rows
…
